Restore Archived Project report for stx_4_1ch
Tue Jan 30 16:44:17 2018
Quartus Prime Version 17.1.1 Internal Build 593 12/11/2017 SJ Standard Edition


---------------------
; Table of Contents ;
---------------------
  1. Legal Notice
  2. Restore Archived Project Summary
  3. Restore Archived Project Messages
  4. Files Restored
  5. Files Not Restored



----------------
; Legal Notice ;
----------------
Copyright (C) 2017  Intel Corporation. All rights reserved.
Your use of Intel Corporation's design tools, logic functions 
and other software and tools, and its AMPP partner logic 
functions, and any output files from any of the foregoing 
(including device programming or simulation files), and any 
associated documentation or information are expressly subject 
to the terms and conditions of the Intel Program License 
Subscription Agreement, the Intel Quartus Prime License Agreement,
the Intel FPGA IP License Agreement, or other applicable license
agreement, including, without limitation, that your use is for
the sole purpose of programming logic devices manufactured by
Intel and sold by Intel or its authorized distributors.  Please
refer to the applicable agreement for further details.



+-------------------------------------------------------------------------+
; Restore Archived Project Summary                                        ;
+---------------------------------+---------------------------------------+
; Restore Archived Project Status ; Successful - Tue Jan 30 16:44:17 2018 ;
; Revision Name                   ; stx_4_1ch                             ;
; Top-level Entity Name           ; XCVR_top                              ;
; Family                          ; Stratix IV                            ;
+---------------------------------+---------------------------------------+


+-----------------------------------+
; Restore Archived Project Messages ;
+-----------------------------------+
Info: Successfully restored 'D:/Users/B1-409_DeWei/Desktop/New_Stx4/stx_4_4ch_min_noGrouping/stx_4_4ch_tmp_archive.qar' into the 'D:/Users/B1-409_DeWei/Desktop/New_Stx4/stx_4_4ch_min_Grouping/' directory
Info: Generated report 'stx_4_1ch.restore.rpt'


+---------------------------------------------------------------+
; Files Restored                                                ;
+---------------------------------------------------------------+
; File Name                                                     ;
+---------------------------------------------------------------+
; qar_info.json                                                 ;
; XCVR_module/XCVR_3125_4ch/XCVR_3125_4ch.cmp                   ;
; XCVR_module/XCVR_3125_4ch/XCVR_3125_4ch.ppf                   ;
; XCVR_module/XCVR_3125_4ch/XCVR_3125_4ch.qip                   ;
; XCVR_module/XCVR_3125_4ch/XCVR_3125_4ch.vhd                   ;
; XCVR_module/XCVR_Reconfig_3125_4ch/XCVR_Reconfig_3125_4ch.cmp ;
; XCVR_module/XCVR_Reconfig_3125_4ch/XCVR_Reconfig_3125_4ch.qip ;
; XCVR_module/XCVR_Reconfig_3125_4ch/XCVR_Reconfig_3125_4ch.vhd ;
; db/stp1_auto_stripped.stp                                     ;
; source_code/DataStruct_param_def_header.vhd                   ;
; source_code/XCVR_8B10B_interconnect.vhd                       ;
; source_code/XCVR_top.vhd                                      ;
; source_code/frame_check.vhd                                   ;
; source_code/frame_gen.vhd                                     ;
; source_code/lane_up_condition_checker.vhd                     ;
; source_code/traffical.vhd                                     ;
; stp1.stp                                                      ;
; stx_4_1ch.qsf                                                 ;
; stx_4_1ch_assignment_defaults.qdf                             ;
; stx_4_4ch.qpf                                                 ;
+---------------------------------------------------------------+


+--------------------+
; Files Not Restored ;
+--------------------+
; File Name          ;
+--------------------+


