IP Upgrade report for stx_4_1ch
Wed Jun  6 09:49:24 2018
Quartus Prime Version 18.0.0 Build 614 04/24/2018 SJ Standard Edition


---------------------
; Table of Contents ;
---------------------
  1. Legal Notice
  2. IP Upgrade Summary
  3. Successfully Upgraded IP Components
  4. IP Upgrade Messages



----------------
; Legal Notice ;
----------------
Copyright (C) 2018  Intel Corporation. All rights reserved.
Your use of Intel Corporation's design tools, logic functions 
and other software and tools, and its AMPP partner logic 
functions, and any output files from any of the foregoing 
(including device programming or simulation files), and any 
associated documentation or information are expressly subject 
to the terms and conditions of the Intel Program License 
Subscription Agreement, the Intel Quartus Prime License Agreement,
the Intel FPGA IP License Agreement, or other applicable license
agreement, including, without limitation, that your use is for
the sole purpose of programming logic devices manufactured by
Intel and sold by Intel or its authorized distributors.  Please
refer to the applicable agreement for further details.



+--------------------------------------------------------------------------------+
; IP Upgrade Summary                                                             ;
+------------------------------+-------------------------------------------------+
; IP Components Upgrade Status ; Passed - Wed Jun  6 09:49:24 2018               ;
; Quartus Prime Version        ; 18.0.0 Build 614 04/24/2018 SJ Standard Edition ;
; Revision Name                ; stx_4_1ch                                       ;
; Top-level Entity Name        ; XCVR_top                                        ;
; Family                       ; Stratix IV                                      ;
+------------------------------+-------------------------------------------------+


+-------------------------------------------------------------------------------------------------------------------------------------------------------------------------------------------------------------------------------------------------------------+
; Successfully Upgraded IP Components                                                                                                                                                                                                                         ;
+------------------------+----------------+---------+---------------------------------------------------------------+---------------------------------------------------------------+---------------------------------------------------------------+---------+
; Entity Name            ; Component Name ; Version ; Original Source File                                          ; Generation File Path                                          ; New Source File                                               ; Message ;
+------------------------+----------------+---------+---------------------------------------------------------------+---------------------------------------------------------------+---------------------------------------------------------------+---------+
; XCVR_Reconfig_3125_4ch ; ALTGX_RECONFIG ; 17.1    ; XCVR_module/XCVR_Reconfig_3125_4ch/XCVR_Reconfig_3125_4ch.qip ; XCVR_module/XCVR_Reconfig_3125_4ch/XCVR_Reconfig_3125_4ch.vhd ; XCVR_module/XCVR_Reconfig_3125_4ch/XCVR_Reconfig_3125_4ch.qip ;         ;
; XCVR_3125_4ch          ; ALTGX          ; 17.1    ; XCVR_module/XCVR_3125_4ch/XCVR_3125_4ch.qip                   ; XCVR_module/XCVR_3125_4ch/XCVR_3125_4ch.vhd                   ; XCVR_module/XCVR_3125_4ch/XCVR_3125_4ch.qip                   ;         ;
+------------------------+----------------+---------+---------------------------------------------------------------+---------------------------------------------------------------+---------------------------------------------------------------+---------+


+---------------------+
; IP Upgrade Messages ;
+---------------------+
Info (11902): Backing up file "XCVR_module/XCVR_Reconfig_3125_4ch/XCVR_Reconfig_3125_4ch.vhd" to "XCVR_module/XCVR_Reconfig_3125_4ch/XCVR_Reconfig_3125_4ch.BAK.vhd"
Info (11837): Started upgrading IP component ALTGX_RECONFIG with file "XCVR_module/XCVR_Reconfig_3125_4ch/XCVR_Reconfig_3125_4ch.vhd"
Info (11902): Backing up file "XCVR_module/XCVR_3125_4ch/XCVR_3125_4ch.vhd" to "XCVR_module/XCVR_3125_4ch/XCVR_3125_4ch.BAK.vhd"
Info (11837): Started upgrading IP component ALTGX with file "XCVR_module/XCVR_3125_4ch/XCVR_3125_4ch.vhd"
Info (11131): Completed upgrading IP component ALTGX_RECONFIG with file "XCVR_module/XCVR_Reconfig_3125_4ch/XCVR_Reconfig_3125_4ch.vhd"
Info (11131): Completed upgrading IP component ALTGX with file "XCVR_module/XCVR_3125_4ch/XCVR_3125_4ch.vhd"
Info (23030): Evaluation of Tcl script /opt/intelFPGA/18.0/quartus/common/tcl/internal/ip_regen/ip_regen.tcl was successful
Info: Quartus Prime Shell was successful. 0 errors, 0 warnings
    Info: Peak virtual memory: 1070 megabytes
    Info: Processing ended: Wed Jun  6 09:49:24 2018
    Info: Elapsed time: 00:00:12
    Info: Total CPU time (on all processors): 00:00:28


