Assembler report for stx_4_1ch
Sun Jun 24 13:00:10 2018
Quartus Prime Version 18.0.0 Build 614 04/24/2018 SJ Standard Edition


---------------------
; Table of Contents ;
---------------------
  1. Legal Notice
  2. Assembler Summary
  3. Assembler Settings
  4. Assembler Encrypted IP Cores Summary
  5. Assembler Generated Files
  6. Assembler Device Options: stx_4_1ch.sof
  7. Assembler Messages



----------------
; Legal Notice ;
----------------
Copyright (C) 2018  Intel Corporation. All rights reserved.
Your use of Intel Corporation's design tools, logic functions 
and other software and tools, and its AMPP partner logic 
functions, and any output files from any of the foregoing 
(including device programming or simulation files), and any 
associated documentation or information are expressly subject 
to the terms and conditions of the Intel Program License 
Subscription Agreement, the Intel Quartus Prime License Agreement,
the Intel FPGA IP License Agreement, or other applicable license
agreement, including, without limitation, that your use is for
the sole purpose of programming logic devices manufactured by
Intel and sold by Intel or its authorized distributors.  Please
refer to the applicable agreement for further details.



+---------------------------------------------------------------+
; Assembler Summary                                             ;
+-----------------------+---------------------------------------+
; Assembler Status      ; Successful - Sun Jun 24 13:00:10 2018 ;
; Revision Name         ; stx_4_1ch                             ;
; Top-level Entity Name ; XCVR_TOP                              ;
; Family                ; Stratix IV                            ;
; Device                ; EP4SGX230KF40C2                       ;
+-----------------------+---------------------------------------+


+----------------------------------+
; Assembler Settings               ;
+--------+---------+---------------+
; Option ; Setting ; Default Value ;
+--------+---------+---------------+


+------------------------------------------------+
; Assembler Encrypted IP Cores Summary           ;
+--------+------------------------+--------------+
; Vendor ; IP Core Name           ; License Type ;
+--------+------------------------+--------------+
; Altera ; Signal Tap (6AF7 BCE1) ; Licensed     ;
; Altera ; Signal Tap (6AF7 BCEC) ; Licensed     ;
+--------+------------------------+--------------+


+-------------------------------------------------------------------------------------------------------------------------------------------------------+
; Assembler Generated Files                                                                                                                             ;
+-------------------------------------------------------------------------------------------------------------------------------------------------------+
; File Name                                                                                                                                             ;
+-------------------------------------------------------------------------------------------------------------------------------------------------------+
; /media/dewei_b1409/WorkDisk/WorkSpace/BelleII/MyCode/altera/New Belle-II in stratix4/Min_New_Stx4/stx_4_4ch_min_noGrouping/output_files/stx_4_1ch.sof ;
+-------------------------------------------------------------------------------------------------------------------------------------------------------+


+-----------------------------------------+
; Assembler Device Options: stx_4_1ch.sof ;
+----------------+------------------------+
; Option         ; Setting                ;
+----------------+------------------------+
; JTAG usercode  ; 0x073C2A62             ;
; Checksum       ; 0x073C2A62             ;
+----------------+------------------------+


+--------------------+
; Assembler Messages ;
+--------------------+
Info: *******************************************************************
Info: Running Quartus Prime Assembler
    Info: Version 18.0.0 Build 614 04/24/2018 SJ Standard Edition
    Info: Processing started: Sun Jun 24 13:00:00 2018
Info: Command: quartus_asm --read_settings_files=off --write_settings_files=off stx_4_4ch -c stx_4_1ch
Warning (18236): Number of processors has not been specified which may cause overloading on shared machines.  Set the global assignment NUM_PARALLEL_PROCESSORS in your QSF to an appropriate value for best performance.
Info (115031): Writing out detailed assembly data for power analysis
Info (115030): Assembler is generating device programming files
Info: Quartus Prime Assembler was successful. 0 errors, 1 warning
    Info: Peak virtual memory: 1125 megabytes
    Info: Processing ended: Sun Jun 24 13:00:10 2018
    Info: Elapsed time: 00:00:10
    Info: Total CPU time (on all processors): 00:00:10


